﻿{
  "Params": {
    "Theme": "DefaultTheme.pptx",
    "Template": "colOverlay",
    "Title": "standard + break",
    "Subtitle": "standard base all + if rebase then default"
  },
  "DefaultAttributes": {
    "Notes": "You can enter notes to appear on every slide here."
  },
  "Dictionary": {
    "QCA": "JSONQuestion.QuestionCodeAttributes",
    "DSA": "JSONQuestion.DynamicSurveyAttributes.0",
    "UAS": "UniversalAttributes.Surveys"
  },
  "Sheets": {
    "ChartData": {
      "Name": "Chart",
      "Cells": {
        "A1": {
          "Text": "<Title>",
          "Bold": true
        },
        "A3": {
          "Data": 0,
          "Totals": {
            "Text": "Average",
            "Formula": "=AVERAGE()"
          },
          "Width": 12.57
        },
        "A:A": {
          "Width": 23.71
        }
      }
    }
  },
  "ColorSchemes": {
    "All PPTX Colors (For Reference)": [
      {
        "HTMLColor": "#FFFFFF",
        "MSColor": "Background1"
      },
      {
        "HTMLColor": "#000000",
        "MSColor": "Text1"
      },
      {
        "HTMLColor": "#35BDB2",
        "MSColor": "Background2"
      },
      {
        "HTMLColor": "#278D85",
        "MSColor": "Text2"
      },
      {
        "HTMLColor": "#F47B20",
        "MSColor": "Accent1"
      },
      {
        "HTMLColor": "#A54399",
        "MSColor": "Accent2"
      },
      {
        "HTMLColor": "#54B948",
        "MSColor": "Accent3"
      },
      {
        "HTMLColor": "#ED174F",
        "MSColor": "Accent4"
      },
      {
        "HTMLColor": "#009DDC",
        "MSColor": "Accent5"
      },
      {
        "HTMLColor": "#E7A614",
        "MSColor": "Accent6"
      }
    ],
    "Ordinal": [
      {
        "HTMLColor": "#004B47",
        "xMSColor": "Text2 -50"
      },
      {
        "HTMLColor": "#04635D",
        "xMSColor": "Text2 -25"
      },
      {
        "HTMLColor": "#239088",
        "xMSColor": "Text2"
      },
      {
        "HTMLColor": "#35BDB2",
        "xMSColor": "Background2"
      },
      {
        "HTMLColor": "#72D0C9",
        "xMSColor": "Text2 60"
      },
      {
        "HTMLColor": "#D9D9D9",
        "xMSColor": "Background1 -15"
      },
      {
        "HTMLColor": "#A6A6A6",
        "xMSColor": "Background1 -35"
      },
      {
        "HTMLColor": "#7F7F7F",
        "xMSColor": "Background1 -50"
      },
      {
        "HTMLColor": "#595959",
        "xMSColor": "Text1 35"
      },
      {
        "HTMLColor": "#404040",
        "xMSColor": "Text1 25"
      }
    ],
    "Nominal": [
      [
        {
          "HTMLColor": "#CDEEEC",
          "xMSColor": "Background2 80"
        },
        {
          "HTMLColor": "#AFE5E0",
          "xMSColor": "Background2 60"
        },
        {
          "HTMLColor": "#72D0C9",
          "xMSColor": "Background2 40"
        },
        {
          "HTMLColor": "#35BDB2",
          "xMSColor": "Background2"
        },
        {
          "HTMLColor": "#239088",
          "xMSColor": "Background2 -25"
        },
        {
          "HTMLColor": "#004B47",
          "xMSColor": "Background2 -50"
        }
      ],
      [
        {
          "HTMLColor": "#FCE4D2",
          "xMSColor": "Accent1 80"
        },
        {
          "HTMLColor": "#FACAA5",
          "xMSColor": "Accent1 60"
        },
        {
          "HTMLColor": "#F8AF79",
          "xMSColor": "Accent1 40"
        },
        {
          "HTMLColor": "#F47B20",
          "xMSColor": "Accent1"
        },
        {
          "HTMLColor": "#C55A09",
          "xMSColor": "Accent1 -25"
        },
        {
          "HTMLColor": "#213C06",
          "xMSColor": "Accent1 -50"
        }
      ],
      [
        {
          "HTMLColor": "#EED7EC",
          "xMSColor": "Accent2 80"
        },
        {
          "HTMLColor": "#DEAFD9",
          "xMSColor": "Accent2 60"
        },
        {
          "HTMLColor": "#CE88C6",
          "xMSColor": "Accent2 40"
        },
        {
          "HTMLColor": "#A54399",
          "xMSColor": "Accent2"
        },
        {
          "HTMLColor": "#7B3272",
          "xMSColor": "Accent2 -25"
        },
        {
          "HTMLColor": "#52214C",
          "xMSColor": "Accent2 -50"
        }
      ],
      [
        {
          "HTMLColor": "#DCF1DA",
          "xMSColor": "Accent3 80"
        },
        {
          "HTMLColor": "#BAE3B5",
          "xMSColor": "Accent3 60"
        },
        {
          "HTMLColor": "#98D591",
          "xMSColor": "Accent3 40"
        },
        {
          "HTMLColor": "#54B948",
          "xMSColor": "Accent3"
        },
        {
          "HTMLColor": "#3E8B35",
          "xMSColor": "Accent3 -25"
        },
        {
          "HTMLColor": "#295C23",
          "xMSColor": "Accent3 -50"
        }
      ],
      [
        {
          "HTMLColor": "#FBD0DB",
          "xMSColor": "Accent4 80"
        },
        {
          "HTMLColor": "#F7A2B8",
          "xMSColor": "Accent4 60"
        },
        {
          "HTMLColor": "#F47395",
          "xMSColor": "Accent4 40"
        },
        {
          "HTMLColor": "#ED174F",
          "xMSColor": "Accent4"
        },
        {
          "HTMLColor": "#B40E39",
          "xMSColor": "Accent4 -25"
        },
        {
          "HTMLColor": "#780926",
          "xMSColor": "Accent4 -50"
        }
      ],
      [
        {
          "HTMLColor": "#C5EEFF",
          "xMSColor": "Accent5 80"
        },
        {
          "HTMLColor": "#8BDDFF",
          "xMSColor": "Accent5 60"
        },
        {
          "HTMLColor": "#51CDFF",
          "xMSColor": "Accent5 40"
        },
        {
          "HTMLColor": "#009DDC",
          "xMSColor": "Accent5"
        },
        {
          "HTMLColor": "#0075A5",
          "xMSColor": "Accent5 -25"
        },
        {
          "HTMLColor": "#004E6E",
          "xMSColor": "Accent5 -50"
        }
      ],
      [
        {
          "HTMLColor": "#FAEDCF",
          "xMSColor": "Accent6 80"
        },
        {
          "HTMLColor": "#F6DB9F",
          "xMSColor": "Accent6 60"
        },
        {
          "HTMLColor": "#F2CA6F",
          "xMSColor": "Accent6 40"
        },
        {
          "HTMLColor": "#E7A614",
          "xMSColor": "Accent6"
        },
        {
          "HTMLColor": "#AD7C0E",
          "xMSColor": "Accent6 -25"
        },
        {
          "HTMLColor": "#735309",
          "xMSColor": "Accent6 -50"
        }
      ]
    ],
    "Traffic": [
      {
        "HTMLColor": "#54B948",
        "xMSColor": "Accent3"
      },
      {
        "HTMLColor": "#96B031"
      },
      {
        "HTMLColor": "#B2AD27"
      },
      {
        "HTMLColor": "#CDA91D"
      },
      {
        "HTMLColor": "#E7A614",
        "xMSColor": "Accent6"
      },
      {
        "HTMLColor": "#E8931C"
      },
      {
        "HTMLColor": "#E97C25"
      },
      {
        "HTMLColor": "#EA5934"
      },
      {
        "HTMLColor": "#ED174F",
        "xMSColor": "Accent4"
      }
    ]
  },
  "ColorSubsets": {
    "Ordinal": {
      "Negatives": [ "", "10" ],
      "Zeros": [ "", "6" ],
      "Positives": [
        "",
        "4",
        "1,4",
        "1,4,6",
        "1,4,5,6",
        "1,3,4,6,8",
        "1,3,4,5,6,8",
        "1,2,3,4,5,6,8",
        "1,2,3,4,5,6,7,8",
        "1,2,3,4,5,6,7,8,9",
        "1,2,3,4,5,6,7,8,9,10"
      ]
    },
    "Traffic": {
      "Green": [ "", "1", "1,3", "1,2,3" ],
      "Amber": [ "", "5", "5,5", "4,5,6" ],
      "Red": [ "", "9", "7,9", "7,8,9" ]
    },
    "Nominal": [
      "",
      "4",
      "4,5",
      "4,5,6",
      "3,4,5,6",
      "2,3,4,5,6",
      "1,2,3,4,5,6"
    ]
  },
  "ChartLayouts": {
    "LegendTop": {
      "PlotArea": {
        "Top": 10,
        "Left": 10,
        "Width": 90,
        "Height": 90
      },
      "Legend": {
        "Top": 0,
        "Left": 10,
        "Width": 80,
        "Height": 10,
        "Position": "Top"
      }
    },
    "LegendRight": {
      "PlotArea": {
        "Top": 0,
        "Left": 10,
        "Width": 65,
        "Height": 100
      },
      "Legend": {
        "Top": 0,
        "Left": 75,
        "Width": 25,
        "Height": 100,
        "Position": "Right"
      }
    },
    "LegendBottomRight": {
      "PlotArea": {
        "Top": 0,
        "Left": 10,
        "Width": 90,
        "Height": 100
      },
      "Legend": {
        "Top": 40,
        "Left": 88,
        "Width": 12,
        "Height": 60,
        "Position": "Right"
      }
    },
    "LegendHidden": {
      "PlotArea": {
        "Top": 0,
        "Left": 10,
        "Width": 90,
        "Height": 100
      },
      "Legend": {
        "IsHidden": true
      }
    }
  }
}