﻿{
  "Format": "General",
  "CellWidth": 12.14,
  "Sheets": [
    {
      "Name": "Example",
      "CellWidth": 12.14,
      "Cells": {
        "A1": {
          "Text": "Example Sheet",
          "Bold": true
        },
        "A2": {
          "Text": "This worksheet is an example of static text.  Static text will start in the given cell reference. Tabs and Return characters will move right and down a row, respectively."
        },
        "A3": {
          "Text": "A table\tCol 1\tCol 2\tCol 3\tCol 4\nRow 1\t\tCell(2,1)\nRow 2\nRow 3\tCell(1,3)"
        },
        "A4": {
          "Text": "If a cell definition uses more than one row. Following definitions will be shifted down automatically. Use $ references override this behaviour."
        },
        "A5": {
          "Text": "10"
        },
        "B5": {
          "Text": "=A8"
        },
        "C5": {
          "Text": "=A8 + B8"
        },
        "A6": {
          "Text": "Formulae begin with \"=\". A1 Cell references must be explicitly defined, or you can use R[]C[] for relative references. (NB. You can't use both A1 and R1C1 references in one formula.)"
        },
        "D5:F5": {
          "Text": "=RC[-1]+RC1"
        },
        "A:A": {
          "Width": 23.71
        },
        "A8": "The following two tables are selected from a dynamic data source and the last is a static table data source.",
        "B10": {
          "DataSource": "SQLSource",
          "DataIndex": 0
        },
        "B12": {
          "DataSource": "SQLSource",
          "DataIndex": 1
        },
        "B14": {
          "DataSource": "TableSource",
          "Format": "£0.00"
        }
      }
    }
  ],
  "DataSources": {
    "SQLSource": {
      "ConnectionString": "DWH",
      "Command": "SELECT 1 AS First, 1 AS Second, 3 AS Third; SELECT @Param1 AS _header, 1 AS This, 2 AS That;",
      "Parameters": {
        "Param1": "My Row"
      }
    },
    "TableSource": {
      "columns": [ "_RowHeaders", "Col 1", "Col 2", "Col 3" ],
      "rows": [
        [ "Row 1", 1, 2, 3 ],
        [ "Row 2", 2, 3, 4 ],
        [ "Row 3", 3, 4, 5 ]
      ]
    }
  }

}
